FileName	DataLevel	CancerType	CenterType	Center	Platform	DataType	ArchiveCode	ArchiveSerial	ArchiveRevision	ArchiveSeries	ArchiveFileName	Aliquots
SOCKS_p_TCGA_31_38_RX14_HT_HG-U133A_96-HTA_F02_588258.level3.data.txt	3	GBM	CGCC	01	HT_HG-U133A	transcriptome	broad.mit.edu_GBM.HT_HG-U133A.Level_3.38.1007.0	null	null	null	https://tcga-data.nci.nih.gov/tcgafiles/ftp_auth/distro_ftpusers/anonymous/tumor/gbm/cgcc/broad.mit.edu/ht_hg-u133a/transcriptome/broad.mit.edu_GBM.HT_HG-U133A.Level_3.38.1007.0.tar.gz/SOCKS_p_TCGA_31_38_RX14_HT_HG-U133A_96-HTA_F02_588258.level3.data.txt	TCGA-19-1390-01A-01R-0916-01
5500024037497121008340.C04.level3.data.txt	3	GBM	CGCC	01	HT_HG-U133A	transcriptome	broad.mit.edu_GBM.HT_HG-U133A.Level_3.7.1007.0	null	null	null	https://tcga-data.nci.nih.gov/tcgafiles/ftp_auth/distro_ftpusers/anonymous/tumor/gbm/cgcc/broad.mit.edu/ht_hg-u133a/transcriptome/broad.mit.edu_GBM.HT_HG-U133A.Level_3.7.1007.0.tar.gz/5500024037497121008340.C04.level3.data.txt	TCGA-02-0079-01A-03R-0306-01
5500024037497121008340.F04.level3.data.txt	3	GBM	CGCC	01	HT_HG-U133A	transcriptome	broad.mit.edu_GBM.HT_HG-U133A.Level_3.7.1007.0	null	null	null	https://tcga-data.nci.nih.gov/tcgafiles/ftp_auth/distro_ftpusers/anonymous/tumor/gbm/cgcc/broad.mit.edu/ht_hg-u133a/transcriptome/broad.mit.edu_GBM.HT_HG-U133A.Level_3.7.1007.0.tar.gz/5500024037497121008340.F04.level3.data.txt	TCGA-06-0152-01A-02R-0306-01
