bcr_sample_barcode	bcr_portion_barcode	day_of_creation	month_of_creation	weight	year_of_creation
TCGA-AA-AACX-01A	TCGA-AA-AACX-01A-21	08	06	30.00	2010
TCGA-AA-AACX-10A	TCGA-AA-AACX-10A-01	30	04	null	2010
TCGA-AA-AAD0-01A	TCGA-AA-AAD0-01A-11	09	06	30.00	2010
TCGA-AA-AAD0-10A	TCGA-AA-AAD0-10A-01	30	04	null	2010
TCGA-AA-AAD4-01A	TCGA-AA-AAD4-01A-11	09	06	30.00	2010
TCGA-AA-AAD4-10A	TCGA-AA-AAD4-10A-01	30	04	null	2010
TCGA-AB-AACD-01A	TCGA-AB-AACD-01A-11	08	06	30.00	2010
TCGA-AB-AACD-10A	TCGA-AB-AACD-10A-01	15	04	null	2010
TCGA-AB-AACE-01A	TCGA-AB-AACE-01A-11	08	06	30.00	2010
TCGA-AB-AACE-10A	TCGA-AB-AACE-10A-01	15	04	null	2010
TCGA-AB-AACG-01A	TCGA-AB-AACG-01A-11	08	06	30.00	2010
TCGA-AB-AACG-10A	TCGA-AB-AACG-10A-01	15	04	null	2010
TCGA-AB-AACH-01A	TCGA-AB-AACH-01A-21	08	06	40.00	2010
TCGA-AB-AACH-10A	TCGA-AB-AACH-10A-01	15	04	null	2010
